Library\Bee\artifacts\mvdfrm\Unity.RenderPipelines.Core.Runtime.ref.dll_CA9A1FD000BA57CF.mvfrm
Library\Bee\artifacts\mvdfrm\Unity.RenderPipelines.Universal.Runtime.ref.dll_F2E669F900AB6F15.mvfrm
Library\Bee\artifacts\mvdfrm\Unity.Timeline.ref.dll_54050F91DBE64E14.mvfrm
Library\Bee\artifacts\mvdfrm\UnityEngine.UI.ref.dll_FAE6DBEA21006BE5.mvfrm
Library\Bee\artifacts\mvdfrm\Unity.VisualScripting.Antlr3.Runtime.dll_E29909180AABF47E.mvfrm
Library\Bee\artifacts\mvdfrm\UnityEngine.AccessibilityModule.dll_5A10E11058088A34.mvfrm
Library\Bee\artifacts\mvdfrm\UnityEngine.AIModule.dll_F41FCC6B2526B006.mvfrm
Library\Bee\artifacts\mvdfrm\UnityEngine.AndroidJNIModule.dll_A2FAD125EAC778C4.mvfrm
Library\Bee\artifacts\mvdfrm\UnityEngine.AnimationModule.dll_10B8B12E2D41BBDA.mvfrm
Library\Bee\artifacts\mvdfrm\UnityEngine.ARModule.dll_AD92916E82440ECF.mvfrm
Library\Bee\artifacts\mvdfrm\UnityEngine.AssetBundleModule.dll_3FC89B7EBE973248.mvfrm
Library\Bee\artifacts\mvdfrm\UnityEngine.AudioModule.dll_5B247AB8F589964C.mvfrm
Library\Bee\artifacts\mvdfrm\UnityEngine.ClothModule.dll_C20CD7B3CFA67530.mvfrm
Library\Bee\artifacts\mvdfrm\UnityEngine.ClusterInputModule.dll_6C910F72EE42666E.mvfrm
Library\Bee\artifacts\mvdfrm\UnityEngine.ClusterRendererModule.dll_9EDDE0BBA7550FF3.mvfrm
Library\Bee\artifacts\mvdfrm\UnityEngine.CoreModule.dll_8A8398275B27571D.mvfrm
Library\Bee\artifacts\mvdfrm\UnityEngine.CrashReportingModule.dll_46BD5052E116FED5.mvfrm
Library\Bee\artifacts\mvdfrm\UnityEngine.DirectorModule.dll_C9EFD80D7E06047A.mvfrm
Library\Bee\artifacts\mvdfrm\UnityEngine.dll_07832864BCD5C7E8.mvfrm
Library\Bee\artifacts\mvdfrm\UnityEngine.DSPGraphModule.dll_CF413976F066D59B.mvfrm
Library\Bee\artifacts\mvdfrm\UnityEngine.GameCenterModule.dll_CD481B40B10869B5.mvfrm
Library\Bee\artifacts\mvdfrm\UnityEngine.GIModule.dll_8C5C1578C0D59820.mvfrm
Library\Bee\artifacts\mvdfrm\UnityEngine.GridModule.dll_67F4B415737BED14.mvfrm
Library\Bee\artifacts\mvdfrm\UnityEngine.HotReloadModule.dll_92016F340874D75C.mvfrm
Library\Bee\artifacts\mvdfrm\UnityEngine.ImageConversionModule.dll_0ACFDE6C2979C7E7.mvfrm
Library\Bee\artifacts\mvdfrm\UnityEngine.IMGUIModule.dll_93841A1FBBBB2A2D.mvfrm
Library\Bee\artifacts\mvdfrm\UnityEngine.InputLegacyModule.dll_D10DB69D5688E839.mvfrm
Library\Bee\artifacts\mvdfrm\UnityEngine.InputModule.dll_C19A42696BC1BAF0.mvfrm
Library\Bee\artifacts\mvdfrm\UnityEngine.JSONSerializeModule.dll_BA286A4C5743EABE.mvfrm
Library\Bee\artifacts\mvdfrm\UnityEngine.LocalizationModule.dll_AADDD9C585BE5967.mvfrm
Library\Bee\artifacts\mvdfrm\UnityEngine.NVIDIAModule.dll_B8A3F3180C1A4129.mvfrm
Library\Bee\artifacts\mvdfrm\UnityEngine.ParticleSystemModule.dll_99CF999F4F288A63.mvfrm
Library\Bee\artifacts\mvdfrm\UnityEngine.PerformanceReportingModule.dll_0CA0DD404B7348DC.mvfrm
Library\Bee\artifacts\mvdfrm\UnityEngine.Physics2DModule.dll_5D5EA11ECE3EB36F.mvfrm
Library\Bee\artifacts\mvdfrm\UnityEngine.PhysicsModule.dll_90C037D5A2D0429D.mvfrm
Library\Bee\artifacts\mvdfrm\UnityEngine.ProfilerModule.dll_FC361144175F8B87.mvfrm
Library\Bee\artifacts\mvdfrm\UnityEngine.RuntimeInitializeOnLoadManagerInitializerModule.dll_1DD3E8C6A2458238.mvfrm
Library\Bee\artifacts\mvdfrm\UnityEngine.ScreenCaptureModule.dll_D41017D16BB01720.mvfrm
Library\Bee\artifacts\mvdfrm\UnityEngine.SharedInternalsModule.dll_8EE11D41A0A7C337.mvfrm
Library\Bee\artifacts\mvdfrm\UnityEngine.SpriteMaskModule.dll_B6748DD0D277FF2F.mvfrm
Library\Bee\artifacts\mvdfrm\UnityEngine.SpriteShapeModule.dll_5929C8D974396A52.mvfrm
Library\Bee\artifacts\mvdfrm\UnityEngine.StreamingModule.dll_C54D9E7E7CC97318.mvfrm
Library\Bee\artifacts\mvdfrm\UnityEngine.SubstanceModule.dll_A1F8B2C7C81C7126.mvfrm
Library\Bee\artifacts\mvdfrm\UnityEngine.SubsystemsModule.dll_2121F432A0BFE742.mvfrm
Library\Bee\artifacts\mvdfrm\UnityEngine.TerrainModule.dll_AB06B344788E8B8B.mvfrm
Library\Bee\artifacts\mvdfrm\UnityEngine.TerrainPhysicsModule.dll_9A4A4272686B84F0.mvfrm
Library\Bee\artifacts\mvdfrm\UnityEngine.TextCoreFontEngineModule.dll_7BA5EAA07FAF23FB.mvfrm
Library\Bee\artifacts\mvdfrm\UnityEngine.TextCoreTextEngineModule.dll_C38E21120F32DD19.mvfrm
Library\Bee\artifacts\mvdfrm\UnityEngine.TextRenderingModule.dll_FD4F89DC22E79715.mvfrm
Library\Bee\artifacts\mvdfrm\UnityEngine.TilemapModule.dll_4A031AC5904B6C94.mvfrm
Library\Bee\artifacts\mvdfrm\UnityEngine.TLSModule.dll_9B6E242A9B012431.mvfrm
Library\Bee\artifacts\mvdfrm\UnityEngine.UIElementsModule.dll_2560559AA3EC2339.mvfrm
Library\Bee\artifacts\mvdfrm\UnityEngine.UIElementsNativeModule.dll_A1A252F62FB82EF0.mvfrm
Library\Bee\artifacts\mvdfrm\UnityEngine.UIModule.dll_EF936A98816DB5B2.mvfrm
Library\Bee\artifacts\mvdfrm\UnityEngine.UmbraModule.dll_D5F926D182B041BF.mvfrm
Library\Bee\artifacts\mvdfrm\UnityEngine.UNETModule.dll_1D29E010A8364C96.mvfrm
Library\Bee\artifacts\mvdfrm\UnityEngine.UnityAnalyticsCommonModule.dll_A7DF9A84655BE73A.mvfrm
Library\Bee\artifacts\mvdfrm\UnityEngine.UnityAnalyticsModule.dll_B96F0A68FB4FDC5F.mvfrm
Library\Bee\artifacts\mvdfrm\UnityEngine.UnityConnectModule.dll_DA541E6C37429453.mvfrm
Library\Bee\artifacts\mvdfrm\UnityEngine.UnityCurlModule.dll_43D5525F9D55ADC7.mvfrm
Library\Bee\artifacts\mvdfrm\UnityEngine.UnityTestProtocolModule.dll_EA0F2BCAF6E1A5B5.mvfrm
Library\Bee\artifacts\mvdfrm\UnityEngine.UnityWebRequestAssetBundleModule.dll_0E3E4415631FAE70.mvfrm
Library\Bee\artifacts\mvdfrm\UnityEngine.UnityWebRequestAudioModule.dll_849D311ED1DE1374.mvfrm
Library\Bee\artifacts\mvdfrm\UnityEngine.UnityWebRequestModule.dll_1C6EE616346E6266.mvfrm
Library\Bee\artifacts\mvdfrm\UnityEngine.UnityWebRequestTextureModule.dll_E28FEFBBE95C5FC9.mvfrm
Library\Bee\artifacts\mvdfrm\UnityEngine.UnityWebRequestWWWModule.dll_8E50666DFEF29985.mvfrm
Library\Bee\artifacts\mvdfrm\UnityEngine.VehiclesModule.dll_41B2D18CF82FD415.mvfrm
Library\Bee\artifacts\mvdfrm\UnityEngine.VFXModule.dll_1C4CBC99716E8D9E.mvfrm
Library\Bee\artifacts\mvdfrm\UnityEngine.VideoModule.dll_802DFF23B81BB1F1.mvfrm
Library\Bee\artifacts\mvdfrm\UnityEngine.VirtualTexturingModule.dll_C62F07650866AF7B.mvfrm
Library\Bee\artifacts\mvdfrm\UnityEngine.VRModule.dll_4265911E23283B2A.mvfrm
Library\Bee\artifacts\mvdfrm\UnityEngine.WindModule.dll_00D2734FEC5DD586.mvfrm
Library\Bee\artifacts\mvdfrm\UnityEngine.XRModule.dll_75245422AC628888.mvfrm